^C:\USERS\MARCI\DESKTOP\#STUDIA#\JIPP\PROJEKT\MY_PROJECT\MY_PROJECT JAMRÓZ MARCIN GR.11\MY_PROJECT\X64\DEBUG\BLEDY_KOMUNIKATY.OBJ|C:\USERS\MARCI\DESKTOP\#STUDIA#\JIPP\PROJEKT\MY_PROJECT\MY_PROJECT JAMRÓZ MARCIN GR.11\MY_PROJECT\X64\DEBUG\DATA.OBJ|C:\USERS\MARCI\DESKTOP\#STUDIA#\JIPP\PROJEKT\MY_PROJECT\MY_PROJECT JAMRÓZ MARCIN GR.11\MY_PROJECT\X64\DEBUG\INTERFEJS.OBJ|C:\USERS\MARCI\DESKTOP\#STUDIA#\JIPP\PROJEKT\MY_PROJECT\MY_PROJECT JAMRÓZ MARCIN GR.11\MY_PROJECT\X64\DEBUG\MY_PROJECT.OBJ|C:\USERS\MARCI\DESKTOP\#STUDIA#\JIPP\PROJEKT\MY_PROJECT\MY_PROJECT JAMRÓZ MARCIN GR.11\MY_PROJECT\X64\DEBUG\SETWORKDIR.OBJ|C:\USERS\MARCI\DESKTOP\#STUDIA#\JIPP\PROJEKT\MY_PROJECT\MY_PROJECT JAMRÓZ MARCIN GR.11\MY_PROJECT\X64\DEBUG\STDAFX.OBJ|C:\USERS\MARCI\DESKTOP\#STUDIA#\JIPP\PROJEKT\MY_PROJECT\MY_PROJECT JAMRÓZ MARCIN GR.11\MY_PROJECT\X64\DEBUG\STOS.OBJ
C:\WINDOWS\GLOBALIZATION\SORTING\SORTDEFAULT.NLS
C:\PROGRAM FILES (X86)\WINDOWS KITS\8.1\LIB\WINV6.3\UM\X64\KERNEL32.LIB
C:\PROGRAM FILES (X86)\WINDOWS KITS\8.1\LIB\WINV6.3\UM\X64\USER32.LIB
C:\PROGRAM FILES (X86)\WINDOWS KITS\8.1\LIB\WINV6.3\UM\X64\GDI32.LIB
C:\PROGRAM FILES (X86)\WINDOWS KITS\8.1\LIB\WINV6.3\UM\X64\WINSPOOL.LIB
C:\PROGRAM FILES (X86)\WINDOWS KITS\8.1\LIB\WINV6.3\UM\X64\COMDLG32.LIB
C:\PROGRAM FILES (X86)\WINDOWS KITS\8.1\LIB\WINV6.3\UM\X64\ADVAPI32.LIB
C:\PROGRAM FILES (X86)\WINDOWS KITS\8.1\LIB\WINV6.3\UM\X64\SHELL32.LIB
C:\PROGRAM FILES (X86)\WINDOWS KITS\8.1\LIB\WINV6.3\UM\X64\OLE32.LIB
C:\PROGRAM FILES (X86)\WINDOWS KITS\8.1\LIB\WINV6.3\UM\X64\OLEAUT32.LIB
C:\PROGRAM FILES (X86)\WINDOWS KITS\8.1\LIB\WINV6.3\UM\X64\UUID.LIB
C:\PROGRAM FILES (X86)\WINDOWS KITS\8.1\LIB\WINV6.3\UM\X64\ODBC32.LIB
C:\PROGRAM FILES (X86)\WINDOWS KITS\8.1\LIB\WINV6.3\UM\X64\ODBCCP32.LIB
C:\USERS\MARCI\DESKTOP\#STUDIA#\JIPP\PROJEKT\MY_PROJECT\MY_PROJECT JAMRóZ MARCIN GR.11\MY_PROJECT\X64\DEBUG\BLEDY_KOMUNIKATY.OBJ
C:\USERS\MARCI\DESKTOP\#STUDIA#\JIPP\PROJEKT\MY_PROJECT\MY_PROJECT JAMRóZ MARCIN GR.11\MY_PROJECT\X64\DEBUG\DATA.OBJ
C:\USERS\MARCI\DESKTOP\#STUDIA#\JIPP\PROJEKT\MY_PROJECT\MY_PROJECT JAMRóZ MARCIN GR.11\MY_PROJECT\X64\DEBUG\INTERFEJS.OBJ
C:\USERS\MARCI\DESKTOP\#STUDIA#\JIPP\PROJEKT\MY_PROJECT\MY_PROJECT JAMRóZ MARCIN GR.11\MY_PROJECT\X64\DEBUG\MY_PROJECT.OBJ
C:\USERS\MARCI\DESKTOP\#STUDIA#\JIPP\PROJEKT\MY_PROJECT\MY_PROJECT JAMRóZ MARCIN GR.11\MY_PROJECT\X64\DEBUG\SETWORKDIR.OBJ
C:\USERS\MARCI\DESKTOP\#STUDIA#\JIPP\PROJEKT\MY_PROJECT\MY_PROJECT JAMRóZ MARCIN GR.11\MY_PROJECT\X64\DEBUG\STDAFX.OBJ
C:\USERS\MARCI\DESKTOP\#STUDIA#\JIPP\PROJEKT\MY_PROJECT\MY_PROJECT JAMRóZ MARCIN GR.11\MY_PROJECT\X64\DEBUG\STOS.OBJ
C:\WINDOWS\SYSTEM32\TZRES.DLL
C:\PROGRAM FILES (X86)\MICROSOFT VISUAL STUDIO 14.0\VC\LIB\AMD64\MSVCRTD.LIB
C:\PROGRAM FILES (X86)\MICROSOFT VISUAL STUDIO 14.0\VC\LIB\AMD64\OLDNAMES.LIB
C:\PROGRAM FILES (X86)\MICROSOFT VISUAL STUDIO 14.0\VC\LIB\AMD64\VCRUNTIMED.LIB
C:\PROGRAM FILES (X86)\WINDOWS KITS\10\LIB\10.0.10240.0\UCRT\X64\UCRTD.LIB
C:\PROGRAM FILES (X86)\WINDOWS KITS\8.1\BIN\X86\RC.EXE
C:\PROGRAM FILES (X86)\MICROSOFT VISUAL STUDIO 14.0\VC\BIN\CVTRES.EXE
^C:\USERS\MARCI\DESKTOP\NOWY FOLDER\MY_PROJECT JAMRÓZ MARCIN GR.11\MY_PROJECT\X64\DEBUG\BLEDY_KOMUNIKATY.OBJ|C:\USERS\MARCI\DESKTOP\NOWY FOLDER\MY_PROJECT JAMRÓZ MARCIN GR.11\MY_PROJECT\X64\DEBUG\DATA.OBJ|C:\USERS\MARCI\DESKTOP\NOWY FOLDER\MY_PROJECT JAMRÓZ MARCIN GR.11\MY_PROJECT\X64\DEBUG\INTERFEJS.OBJ|C:\USERS\MARCI\DESKTOP\NOWY FOLDER\MY_PROJECT JAMRÓZ MARCIN GR.11\MY_PROJECT\X64\DEBUG\MY_PROJECT.OBJ|C:\USERS\MARCI\DESKTOP\NOWY FOLDER\MY_PROJECT JAMRÓZ MARCIN GR.11\MY_PROJECT\X64\DEBUG\SETWORKDIR.OBJ|C:\USERS\MARCI\DESKTOP\NOWY FOLDER\MY_PROJECT JAMRÓZ MARCIN GR.11\MY_PROJECT\X64\DEBUG\STDAFX.OBJ|C:\USERS\MARCI\DESKTOP\NOWY FOLDER\MY_PROJECT JAMRÓZ MARCIN GR.11\MY_PROJECT\X64\DEBUG\STOS.OBJ
C:\WINDOWS\GLOBALIZATION\SORTING\SORTDEFAULT.NLS
C:\PROGRAM FILES (X86)\WINDOWS KITS\8.1\LIB\WINV6.3\UM\X64\KERNEL32.LIB
C:\PROGRAM FILES (X86)\WINDOWS KITS\8.1\LIB\WINV6.3\UM\X64\USER32.LIB
C:\PROGRAM FILES (X86)\WINDOWS KITS\8.1\LIB\WINV6.3\UM\X64\GDI32.LIB
C:\PROGRAM FILES (X86)\WINDOWS KITS\8.1\LIB\WINV6.3\UM\X64\WINSPOOL.LIB
C:\PROGRAM FILES (X86)\WINDOWS KITS\8.1\LIB\WINV6.3\UM\X64\COMDLG32.LIB
C:\PROGRAM FILES (X86)\WINDOWS KITS\8.1\LIB\WINV6.3\UM\X64\ADVAPI32.LIB
C:\PROGRAM FILES (X86)\WINDOWS KITS\8.1\LIB\WINV6.3\UM\X64\SHELL32.LIB
C:\PROGRAM FILES (X86)\WINDOWS KITS\8.1\LIB\WINV6.3\UM\X64\OLE32.LIB
C:\PROGRAM FILES (X86)\WINDOWS KITS\8.1\LIB\WINV6.3\UM\X64\OLEAUT32.LIB
C:\PROGRAM FILES (X86)\WINDOWS KITS\8.1\LIB\WINV6.3\UM\X64\UUID.LIB
C:\PROGRAM FILES (X86)\WINDOWS KITS\8.1\LIB\WINV6.3\UM\X64\ODBC32.LIB
C:\PROGRAM FILES (X86)\WINDOWS KITS\8.1\LIB\WINV6.3\UM\X64\ODBCCP32.LIB
C:\USERS\MARCI\DESKTOP\NOWY FOLDER\MY_PROJECT JAMRóZ MARCIN GR.11\MY_PROJECT\X64\DEBUG\BLEDY_KOMUNIKATY.OBJ
C:\USERS\MARCI\DESKTOP\NOWY FOLDER\MY_PROJECT JAMRóZ MARCIN GR.11\MY_PROJECT\X64\DEBUG\DATA.OBJ
C:\USERS\MARCI\DESKTOP\NOWY FOLDER\MY_PROJECT JAMRóZ MARCIN GR.11\MY_PROJECT\X64\DEBUG\INTERFEJS.OBJ
C:\USERS\MARCI\DESKTOP\NOWY FOLDER\MY_PROJECT JAMRóZ MARCIN GR.11\MY_PROJECT\X64\DEBUG\MY_PROJECT.OBJ
C:\USERS\MARCI\DESKTOP\NOWY FOLDER\MY_PROJECT JAMRóZ MARCIN GR.11\MY_PROJECT\X64\DEBUG\SETWORKDIR.OBJ
C:\USERS\MARCI\DESKTOP\NOWY FOLDER\MY_PROJECT JAMRóZ MARCIN GR.11\MY_PROJECT\X64\DEBUG\STDAFX.OBJ
C:\USERS\MARCI\DESKTOP\NOWY FOLDER\MY_PROJECT JAMRóZ MARCIN GR.11\MY_PROJECT\X64\DEBUG\STOS.OBJ
C:\PROGRAM FILES (X86)\MICROSOFT VISUAL STUDIO 14.0\VC\LIB\AMD64\MSVCRTD.LIB
C:\PROGRAM FILES (X86)\MICROSOFT VISUAL STUDIO 14.0\VC\LIB\AMD64\OLDNAMES.LIB
C:\PROGRAM FILES (X86)\MICROSOFT VISUAL STUDIO 14.0\VC\LIB\AMD64\VCRUNTIMED.LIB
C:\PROGRAM FILES (X86)\WINDOWS KITS\10\LIB\10.0.10240.0\UCRT\X64\UCRTD.LIB
C:\PROGRAM FILES (X86)\WINDOWS KITS\8.1\BIN\X86\RC.EXE
C:\PROGRAM FILES (X86)\MICROSOFT VISUAL STUDIO 14.0\VC\BIN\CVTRES.EXE
C:\WINDOWS\SYSTEM32\TZRES.DLL
